1 10 20
100 200 125
201 210 89
900 1000 174
2 11 20
1 1000000 525
23 123413 354
444 12344 268
124555 44322 354
12123 2 268
8686 364755 443
544 1234 182
4444 12444 268
55555 959585 525
12123 12987 263
998 675866 509
7439 134013 354
135890 888595 525
9834 234125 443
992827 9 525
2 555 144
1235 16323 276
83245 2345 351
2449 58833 340
181309 29311 383
88 89 31
89383 177728 383
1234 75803 340
12345 67890 340
1597 23789 282
374892 123489 443
84848 848484 525
298101 188 443
30234 7892 308
325058 760175 509
589654 818078 509
272751 46552 443
66097 556445 470
832079 616600 509
896106 777542 525
474149 539808 470
741153 693191 504
890848 980395 507
611588 849699 525
976669 925784 507
209482 904253 525
450649 82377 449
254603 662307 509
316507 825255 509
701695 2372 509
792274 701588 504
648969 972376 525
351516 201166 443
731397 291973 509
460325 355404 449
884496 444715 525
327966 263205 407
395437 513909 470
721069 913382 525
812409 981760 525
281494 820275 509
239020 988644 525
659187 798610 504
468915 532635 470
376424 516840 470
463703 775739 509
424157 969365 525
546394 89125 470
438416 321589 449
393029 677215 509
649775 486527 509
367878 527370 470
52126 758590 509
545347 754125 509
33946 348883 443
570700 939891 525
462180 318172 449
246984 635099 509
768626 248738 509
15675 832618 509
838371 384904 525
23947 802177 509
142544 58943 354
845920 503909 525
931708 201677 525
305532 57813 443
805312 878051 525
685839 33069 509
306750 510954 449
818287 445121 509
72451 751358 509
1060 846274 525
594320 724310 509
894399 199944 525
820718 747285 468
180244 880706 525
334379 415759 449
417659 414868 387
191767 830329 509
216326 5287 383
969475 412438 525
144143 297481 443
191337 391867 443
986811 973165 427
418715 934813 525
814410 962485 525
834176 639365 504
976982 191060 525
7398 544610 470
607850 392826 470
840880 893221 445
677335 944483 525
858895 724633 525
266505 865823 525
519189 119326 470
38644 237124 443
512304 680810 509
182148 250499 443
992198 208282 525
312060 165843 443
59333 264096 443
975610 656169 525
583445 515722 452
502637 312372 449
223606 737129 509
533846 982906 525
178275 45502 383
674346 436536 509
821697 898336 525
462874 743202 509
641109 149931 509
251499 865514 525
327079 693235 509
835331 877961 525
322569 387831 441
673150 147009 509
655254 196421 509
192638 844828 525
801458 145189 509
1770 472439 449
916308 745554 525
659225 845994 525
939095 519607 525
149425 249389 443
595088 358299 470
741739 86581 509
617554 145541 470
207678 722666 509
565189 552694 421
48464 451635 449
69242 500076 449
910210 763461 525
756548 133581 509
721920 37422 509
542981 778093 509
424468 793598 509
189313 159265 370
332679 509069 449
666092 4611 509
399547 996660 525
19124 390973 443
287304 797803 509
322845 580577 470
864113 9362 525
32832 185621 383
115877 147215 375
829620 140784 509
678572 977657 525
273522 492907 449
